// Jest Snapshot v1, https://goo.gl/fbAQLP

exports[`Widget Component Snapshot Tests Renders correctly with placeholder and no children 1`] = `
<div>
  <div
    style="padding: 2rem; height: 50%; width: 33.33%; order: 1; display: flex;"
  >
    <div
      draggable="true"
      style="width: 100%; height: 100%; display: block; box-shadow: 2px 2px 6px rgba(0, 0, 0, 0.2); border-radius: 4px; visibility: visible;"
    >
      <div
        style="background-color: white; font-size: 1.5rem; font-style: italic; display: flex; justify-content: center; align-items: center;"
      >
        Widget Placeholder
      </div>
    </div>
  </div>
</div>
`;
